5d50b22b4a1d4da8d8abbdffe17349ab9c080a1b4ba299aea0
ab94734be9372405cf161735e33423c387419332ad0a5a3879
e0bff98fcd813481ed669160d31a87d354129fdb18508f888f
69dd4d13802c6057cb0f9efb19ce60c761974aabee6183f3a6
9c51e013b5f11de70a03d0fc03f8b6aca69f208f186e25752f
d6613bfc8e88254da631fe2866e4db06d894b0b1d87cfd9771
5b36b9c2faf76d915da6bfce680e4915c00abf7b565aed323e
dde6d7c73427d88ceb3bb50c69f26c1947b9c7ac0666ac07dc
a83944ef6508ed1cc46dcddad1a80d01d25144e5ff5d529c39
b64e09e84a6f03759c7458a1f3d65df3e08ebe4343edbff542
a457efae6504547c30ff4d3836ea516fa0d032e4fb9fcf9a2d
d1867dd20bf91ce334607c37f4dedd9cab7650534f968a5e00
af6af6f16b8f348de7c3d1fbfd4d18ee3403aac2bc8b639bc0
26127e5fc5615aa0d39bb9d22abc3060108f3003b567dfa29d
2b346d3b8a040d6d327907d19b79d568a06c3287341fc8a09b
a9992d17417ea50bedf173d4d406c3cebb6966fe5e09e84c40
ead7720cb7d90548f34e42fe16e0c5392da173294d0a0a2ef5
1f8201edbf5f65c5d20282f88a27264d5f72e2b1af3033371a
fc87983dda87199565399c5e97e4a56383defc7c2a1bbff77a
010d458fbdee91f40f20611452e6395cb97b9a10c1bb35941f
388cc85c796619dcfb3b2d1bafef9bfa603010c3806fa23631
0f124e2e36b698280f7b9f9c60074a4d8c3f1a86e7786ad837
6afa6bed8a5612f743390c38e733dd370b19876c51b84c8130
8e01a120abe1c29dfc0095d6b2bbf11c235c60685722c73ee1
507b9a547711833ee8d50ade76c9763a4929658fabbb25147c
bc88e1811f95beda2436858c8def9ce7ab5a12234b6613265b
b1e6c088dcd8df23490ee212dd4db8cac9c90691aba0d74f0e
924e527e36121d54c0cccec450893bacd96e4c03a53a29f4c6
d721d65f0185ab82294e9eee5d442db839853b472b0ced9f38
93760afca2136287c36cdbf22079aa4f6880f57a1da1dd7457
028b7420e2ed0d1a059e09fe276d24de23d8ae28d58f94749e
adf41fc04701ceded89e1b9e77b56421171941bebd7c90b5e5
154b3421125e43d4b52ad63d3b2ad317015d4e587daa74ab8b
49064aa7718ab5542a94177a3a94427d457b89c72c24756c54
d91c76f951d42a8d8b5d61620ddd21c22847545ae3f847ce45
788bc74085f6dd3fbd2841abf3e016e082a6b4af578f981661
a0d2e61fa50f402dbd53c2b40555977aa0784f95dc42f62627
13c604dd6660c8c2974d5892d6b0c58deeb79250245a62dc6c
2754378e60fd857031ff7221b02b004733d59ef8613fc2b56d
36f8a76d932a48a8a630ad7a4448ec38c3c66a4ec37b208e92
