ab3bc6b5860265a51be389bbf878c21a3e35a5971451698474
a37e6fd68f51f4752e3b8dad2a821718bf44c3177579904e17
37826fdfe4a99ca82549bbce8535c7f6821b7bf66171041116
40c5fb6d5ae39b82a61153ca50e2cd84bf4958c1a069b703ff
aa7a139ef1a6049dab06761e8f4c1c688b01311c9830bfc8f5
7b2aceeac0a9157185f05f442c2eba0a213bb3306343191bd1
92ca2e3ab2f9802ddc427de96ff0043938838f6d662bf51169
5a9859d2b8a78c1ba19c5df0e516d1c311ffdaaf439927636c
c1435b59b84e1199a8bb005b39fdbb623495371d603b1ce089
b3219cba823a1d8bf5f5a2326fdaa590ca61b0305f7643bc85
66432cfda5518762b379c1e677d6732f26ee38cdd869988ac5
a24bd7f44a46435e04c9cdb290d2c33450fbf809b9b180804b
b29282e31db2ac6f38310c0e50b8e6471e159ee4cb8bdb74c5
746f9bcb2787033b8b9b8d1e41e7140effac9a8adf19e9eb0a
a1de1f0d557ece20d454e256966cfb6777f053502ae20d8e20
4521a424ca8e5d65a1b37036668a0fe23fd163fbc677fffdfa
ce84f4ac7d6f29352510d5adb4794723a2643e722764f8b48f
670719aa4b453685ab03f2d3879b74b0502252c5e50d01ffc5
7a241cfc484226a01d2af2e6649342972b3358d77f37271f94
843f12eca016af820bde973a1ef249f343901ca0f2e9fb2cb0
327a3b0586d0e6dffd132d4a7a8064a27e0872bf2ef276f510
5000bc1acb2f6fa1647d2ab6e3ad6124aab060f767cac95b04
353981d32d274f923c606fe485dda92d079b77a757a108a8bf
44ac08e4f23a40339a3a751a087f8a898eac99392fd8150baa
0b544327c5eaa269d312f4197cc11dbbb4f2bd37581c8aa985
ee9c83da496a00ef86b9fa2b9905f7c18ccae013c58014edd3
e6d8516339903afdcdaced4993007100ab84fb0326d786c5f4
3dd2979b8e73ba4a5cb760ac34b301de4d303a69c160c39696
8c23153003b2c14bf0f7aedff93908ba05d0cda7cb783b3111
021b724bf70cc5325aa9ae547fde92d19992b38cd7d454f914
a430f4f9415f3836ca02f67033db29ea7c25df9cbdd9b061a6
2e74a505c61213b8068f776c2b6cb2f98e488a7308b8134ee0
87f744b3a38dde6c1db6cfd7dd8ea0bd329d28c794e7cb9dbc
65aed0b8c9e626e115931ab13a37d056a09c443dfb915ada2e
e47d4c492da34916786430752eda36d9ae3a519cab37aed96d
e9567e36e644762bca46a4508b1fb62d0917f7a8fe9ff36ecc
ab4457ab184658576ff19d21085c0c8a919931af01fb78ae40
7017a9ef59f2f10460b04017727904a3172ca33572e98eb85d
baae3d3706eab465603c69145c8509d4e565f3bb9d498a97ca
9891ea6bb637b6a87ba95ce0875cc44162021b395f5306af40
